%YAML 1.1
%TAG !u! tag:unity3d.com,2011:
--- !u!74 &7400000
AnimationClip:
  m_ObjectHideFlags: 0
  m_PrefabParentObject: {fileID: 0}
  m_PrefabInternal: {fileID: 0}
  m_Name: L_Left
  serializedVersion: 6
  m_Legacy: 0
  m_Compressed: 0
  m_UseHighQualityCurve: 1
  m_RotationCurves:
  - curve:
      serializedVersion: 2
      m_Curve:
      - time: 0
        value: {x: -.707106769, y: -6.18172393e-08, z: 6.18172393e-08, w: -.707106769}
        inSlope: {x: 0, y: 0, z: 0, w: 0}
        outSlope: {x: 0, y: 0, z: 0, w: 0}
        tangentMode: 17
      - time: .0166666675
        value: {x: -.707106769, y: -6.18172393e-08, z: 6.18172393e-08, w: -.707106769}
        inSlope: {x: 0, y: 0, z: 0, w: 0}
        outSlope: {x: 0, y: 0, z: 0, w: 0}
        tangentMode: 867
      - time: .0333333351
        value: {x: -.707106769, y: -6.18172393e-08, z: 6.18172393e-08, w: -.707106769}
        inSlope: {x: 0, y: 0, z: 0, w: 0}
        outSlope: {x: 0, y: 0, z: 0, w: 0}
        tangentMode: 0
      - time: .0500000045
        value: {x: -.707106769, y: -6.18172393e-08, z: 6.18172393e-08, w: -.707106769}
        inSlope: {x: 0, y: 0, z: 0, w: 0}
        outSlope: {x: 0, y: 0, z: 0, w: 0}
        tangentMode: 0
      - time: .0666666701
        value: {x: -.707106769, y: -6.18172393e-08, z: 6.18172393e-08, w: -.707106769}
        inSlope: {x: 0, y: 0, z: 0, w: 0}
        outSlope: {x: 0, y: 0, z: 0, w: 0}
        tangentMode: 0
      - time: .0833333358
        value: {x: -.707106769, y: -6.18172393e-08, z: 6.18172393e-08, w: -.707106769}
        inSlope: {x: 0, y: 0, z: 0, w: 0}
        outSlope: {x: 0, y: 0, z: 0, w: 0}
        tangentMode: 700789376
      - time: .100000001
        value: {x: -.707106769, y: -6.18172393e-08, z: 6.18172393e-08, w: -.707106769}
        inSlope: {x: 0, y: 0, z: 0, w: 0}
        outSlope: {x: 0, y: 0, z: 0, w: 0}
        tangentMode: 0
      - time: .116666667
        value: {x: -.707106769, y: -6.18172393e-08, z: 6.18172393e-08, w: -.707106769}
        inSlope: {x: 0, y: 0, z: 0, w: 0}
        outSlope: {x: 0, y: 0, z: 0, w: 0}
        tangentMode: 0
      - time: .13333334
        value: {x: -.707106769, y: -6.18172393e-08, z: 6.18172393e-08, w: -.707106769}
        inSlope: {x: 0, y: 0, z: 0, w: 0}
        outSlope: {x: 0, y: 0, z: 0, w: 0}
        tangentMode: 0
      - time: .150000006
        value: {x: -.707106769, y: -6.18172393e-08, z: 6.18172393e-08, w: -.707106769}
        inSlope: {x: 0, y: 0, z: 0, w: 0}
        outSlope: {x: 0, y: 0, z: 0, w: 0}
        tangentMode: 4
      - time: .166666672
        value: {x: -.707106769, y: -6.18172393e-08, z: 6.18172393e-08, w: -.707106769}
        inSlope: {x: 0, y: 0, z: 0, w: 0}
        outSlope: {x: 0, y: 0, z: 0, w: 0}
        tangentMode: 0
      - time: .183333337
        value: {x: -.707106769, y: -6.18172393e-08, z: 6.18172393e-08, w: -.707106769}
        inSlope: {x: 0, y: 0, z: 0, w: 0}
        outSlope: {x: 0, y: 0, z: 0, w: 0}
        tangentMode: 0
      - time: .200000003
        value: {x: -.707106769, y: -6.18172393e-08, z: 6.18172393e-08, w: -.707106769}
        inSlope: {x: 0, y: 0, z: 0, w: 0}
        outSlope: {x: 0, y: 0, z: 0, w: 0}
        tangentMode: 1146290176
      - time: .216666669
        value: {x: -.707106769, y: -6.18172393e-08, z: 6.18172393e-08, w: -.707106769}
        inSlope: {x: 0, y: 0, z: 0, w: 0}
        outSlope: {x: 0, y: 0, z: 0, w: 0}
        tangentMode: 0
      - time: .233333334
        value: {x: -.707106769, y: -6.18172393e-08, z: 6.18172393e-08, w: -.707106769}
        inSlope: {x: 0, y: 0, z: 0, w: 0}
        outSlope: {x: 0, y: 0, z: 0, w: 0}
        tangentMode: 2
      - time: .25
        value: {x: -.707106769, y: -6.18172393e-08, z: 6.18172393e-08, w: -.707106769}
        inSlope: {x: 0, y: 0, z: 0, w: 0}
        outSlope: {x: 0, y: 0, z: 0, w: 0}
        tangentMode: 32
      - time: .266666681
        value: {x: -.707106769, y: -6.18172393e-08, z: 6.18172393e-08, w: -.707106769}
        inSlope: {x: 0, y: 0, z: 0, w: 0}
        outSlope: {x: 0, y: 0, z: 0, w: 0}
        tangentMode: 0
      m_PreInfinity: 2
      m_PostInfinity: 2
    path: 
  m_CompressedRotationCurves: []
  m_PositionCurves: []
  m_ScaleCurves: []
  m_FloatCurves: []
  m_PPtrCurves:
  - curve:
    - time: 0
      value: {fileID: 21300000, guid: 823fbea4186946d4db6d25662c4a53d7, type: 3}
    - time: .13333334
      value: {fileID: 21300002, guid: 823fbea4186946d4db6d25662c4a53d7, type: 3}
    - time: .266666681
      value: {fileID: 21300000, guid: 823fbea4186946d4db6d25662c4a53d7, type: 3}
    attribute: m_Sprite
    path: 
    classID: 212
    script: {fileID: 0}
  m_SampleRate: 60
  m_WrapMode: 0
  m_Bounds:
    m_Center: {x: 0, y: 0, z: 0}
    m_Extent: {x: 0, y: 0, z: 0}
  m_ClipBindingConstant:
    genericBindings:
    - path: 0
      attribute: 0
      script: {fileID: 0}
      classID: 212
      customType: 23
      isPPtrCurve: 1
    - path: 0
      attribute: 2
      script: {fileID: 0}
      classID: 4
      customType: 0
      isPPtrCurve: 0
    pptrCurveMapping:
    - {fileID: 21300000, guid: 823fbea4186946d4db6d25662c4a53d7, type: 3}
    - {fileID: 21300002, guid: 823fbea4186946d4db6d25662c4a53d7, type: 3}
    - {fileID: 21300000, guid: 823fbea4186946d4db6d25662c4a53d7, type: 3}
  m_AnimationClipSettings:
    serializedVersion: 2
    m_StartTime: 0
    m_StopTime: .283333361
    m_OrientationOffsetY: 0
    m_Level: 0
    m_CycleOffset: 0
    m_LoopTime: 1
    m_LoopBlend: 0
    m_LoopBlendOrientation: 0
    m_LoopBlendPositionY: 0
    m_LoopBlendPositionXZ: 0
    m_KeepOriginalOrientation: 0
    m_KeepOriginalPositionY: 1
    m_KeepOriginalPositionXZ: 0
    m_HeightFromFeet: 0
    m_Mirror: 0
  m_EditorCurves:
  - curve:
      serializedVersion: 2
      m_Curve:
      - time: 0
        value: -.707106769
        inSlope: 0
        outSlope: 0
        tangentMode: 0
      - time: .0166666675
        value: -.707106769
        inSlope: 0
        outSlope: 0
        tangentMode: 0
      - time: .0333333351
        value: -.707106769
        inSlope: 0
        outSlope: 0
        tangentMode: 0
      - time: .0500000045
        value: -.707106769
        inSlope: 0
        outSlope: 0
        tangentMode: 0
      - time: .0666666701
        value: -.707106769
        inSlope: 0
        outSlope: 0
        tangentMode: 0
      - time: .0833333358
        value: -.707106769
        inSlope: 0
        outSlope: 0
        tangentMode: 0
      - time: .100000001
        value: -.707106769
        inSlope: 0
        outSlope: 0
        tangentMode: 0
      - time: .116666667
        value: -.707106769
        inSlope: 0
        outSlope: 0
        tangentMode: 0
      - time: .13333334
        value: -.707106769
        inSlope: 0
        outSlope: 0
        tangentMode: 0
      - time: .150000006
        value: -.707106769
        inSlope: 0
        outSlope: 0
        tangentMode: 0
      - time: .166666672
        value: -.707106769
        inSlope: 0
        outSlope: 0
        tangentMode: 0
      - time: .183333337
        value: -.707106769
        inSlope: 0
        outSlope: 0
        tangentMode: 0
      - time: .200000003
        value: -.707106769
        inSlope: 0
        outSlope: 0
        tangentMode: 0
      - time: .216666669
        value: -.707106769
        inSlope: 0
        outSlope: 0
        tangentMode: 0
      - time: .233333334
        value: -.707106769
        inSlope: 0
        outSlope: 0
        tangentMode: 0
      - time: .25
        value: -.707106769
        inSlope: 0
        outSlope: 0
        tangentMode: 0
      - time: .266666681
        value: -.707106769
        inSlope: 0
        outSlope: 0
        tangentMode: 0
      m_PreInfinity: 2
      m_PostInfinity: 2
    attribute: m_LocalRotation.x
    path: 
    classID: 4
    script: {fileID: 0}
  - curve:
      serializedVersion: 2
      m_Curve:
      - time: 0
        value: -6.18172393e-08
        inSlope: 0
        outSlope: 0
        tangentMode: 0
      - time: .0166666675
        value: -6.18172393e-08
        inSlope: 0
        outSlope: 0
        tangentMode: 0
      - time: .0333333351
        value: -6.18172393e-08
        inSlope: 0
        outSlope: 0
        tangentMode: 0
      - time: .0500000045
        value: -6.18172393e-08
        inSlope: 0
        outSlope: 0
        tangentMode: 0
      - time: .0666666701
        value: -6.18172393e-08
        inSlope: 0
        outSlope: 0
        tangentMode: 0
      - time: .0833333358
        value: -6.18172393e-08
        inSlope: 0
        outSlope: 0
        tangentMode: 0
      - time: .100000001
        value: -6.18172393e-08
        inSlope: 0
        outSlope: 0
        tangentMode: 0
      - time: .116666667
        value: -6.18172393e-08
        inSlope: 0
        outSlope: 0
        tangentMode: 0
      - time: .13333334
        value: -6.18172393e-08
        inSlope: 0
        outSlope: 0
        tangentMode: 0
      - time: .150000006
        value: -6.18172393e-08
        inSlope: 0
        outSlope: 0
        tangentMode: 0
      - time: .166666672
        value: -6.18172393e-08
        inSlope: 0
        outSlope: 0
        tangentMode: 0
      - time: .183333337
        value: -6.18172393e-08
        inSlope: 0
        outSlope: 0
        tangentMode: 0
      - time: .200000003
        value: -6.18172393e-08
        inSlope: 0
        outSlope: 0
        tangentMode: 0
      - time: .216666669
        value: -6.18172393e-08
        inSlope: 0
        outSlope: 0
        tangentMode: 0
      - time: .233333334
        value: -6.18172393e-08
        inSlope: 0
        outSlope: 0
        tangentMode: 0
      - time: .25
        value: -6.18172393e-08
        inSlope: 0
        outSlope: 0
        tangentMode: 0
      - time: .266666681
        value: -6.18172393e-08
        inSlope: 0
        outSlope: 0
        tangentMode: 0
      m_PreInfinity: 2
      m_PostInfinity: 2
    attribute: m_LocalRotation.y
    path: 
    classID: 4
    script: {fileID: 0}
  - curve:
      serializedVersion: 2
      m_Curve:
      - time: 0
        value: 6.18172393e-08
        inSlope: 0
        outSlope: 0
        tangentMode: 0
      - time: .0166666675
        value: 6.18172393e-08
        inSlope: 0
        outSlope: 0
        tangentMode: 0
      - time: .0333333351
        value: 6.18172393e-08
        inSlope: 0
        outSlope: 0
        tangentMode: 0
      - time: .0500000045
        value: 6.18172393e-08
        inSlope: 0
        outSlope: 0
        tangentMode: 0
      - time: .0666666701
        value: 6.18172393e-08
        inSlope: 0
        outSlope: 0
        tangentMode: 0
      - time: .0833333358
        value: 6.18172393e-08
        inSlope: 0
        outSlope: 0
        tangentMode: 0
      - time: .100000001
        value: 6.18172393e-08
        inSlope: 0
        outSlope: 0
        tangentMode: 0
      - time: .116666667
        value: 6.18172393e-08
        inSlope: 0
        outSlope: 0
        tangentMode: 0
      - time: .13333334
        value: 6.18172393e-08
        inSlope: 0
        outSlope: 0
        tangentMode: 0
      - time: .150000006
        value: 6.18172393e-08
        inSlope: 0
        outSlope: 0
        tangentMode: 0
      - time: .166666672
        value: 6.18172393e-08
        inSlope: 0
        outSlope: 0
        tangentMode: 0
      - time: .183333337
        value: 6.18172393e-08
        inSlope: 0
        outSlope: 0
        tangentMode: 0
      - time: .200000003
        value: 6.18172393e-08
        inSlope: 0
        outSlope: 0
        tangentMode: 0
      - time: .216666669
        value: 6.18172393e-08
        inSlope: 0
        outSlope: 0
        tangentMode: 0
      - time: .233333334
        value: 6.18172393e-08
        inSlope: 0
        outSlope: 0
        tangentMode: 0
      - time: .25
        value: 6.18172393e-08
        inSlope: 0
        outSlope: 0
        tangentMode: 0
      - time: .266666681
        value: 6.18172393e-08
        inSlope: 0
        outSlope: 0
        tangentMode: 0
      m_PreInfinity: 2
      m_PostInfinity: 2
    attribute: m_LocalRotation.z
    path: 
    classID: 4
    script: {fileID: 0}
  - curve:
      serializedVersion: 2
      m_Curve:
      - time: 0
        value: -.707106769
        inSlope: 0
        outSlope: 0
        tangentMode: 0
      - time: .0166666675
        value: -.707106769
        inSlope: 0
        outSlope: 0
        tangentMode: 0
      - time: .0333333351
        value: -.707106769
        inSlope: 0
        outSlope: 0
        tangentMode: 0
      - time: .0500000045
        value: -.707106769
        inSlope: 0
        outSlope: 0
        tangentMode: 0
      - time: .0666666701
        value: -.707106769
        inSlope: 0
        outSlope: 0
        tangentMode: 0
      - time: .0833333358
        value: -.707106769
        inSlope: 0
        outSlope: 0
        tangentMode: 0
      - time: .100000001
        value: -.707106769
        inSlope: 0
        outSlope: 0
        tangentMode: 0
      - time: .116666667
        value: -.707106769
        inSlope: 0
        outSlope: 0
        tangentMode: 0
      - time: .13333334
        value: -.707106769
        inSlope: 0
        outSlope: 0
        tangentMode: 0
      - time: .150000006
        value: -.707106769
        inSlope: 0
        outSlope: 0
        tangentMode: 0
      - time: .166666672
        value: -.707106769
        inSlope: 0
        outSlope: 0
        tangentMode: 0
      - time: .183333337
        value: -.707106769
        inSlope: 0
        outSlope: 0
        tangentMode: 0
      - time: .200000003
        value: -.707106769
        inSlope: 0
        outSlope: 0
        tangentMode: 0
      - time: .216666669
        value: -.707106769
        inSlope: 0
        outSlope: 0
        tangentMode: 0
      - time: .233333334
        value: -.707106769
        inSlope: 0
        outSlope: 0
        tangentMode: 0
      - time: .25
        value: -.707106769
        inSlope: 0
        outSlope: 0
        tangentMode: 0
      - time: .266666681
        value: -.707106769
        inSlope: 0
        outSlope: 0
        tangentMode: 0
      m_PreInfinity: 2
      m_PostInfinity: 2
    attribute: m_LocalRotation.w
    path: 
    classID: 4
    script: {fileID: 0}
  m_EulerEditorCurves:
  - curve:
      serializedVersion: 2
      m_Curve:
      - time: 0
        value: 90
        inSlope: 0
        outSlope: 0
        tangentMode: 10
      - time: .266666681
        value: 90
        inSlope: 0
        outSlope: 0
        tangentMode: 10
      m_PreInfinity: 2
      m_PostInfinity: 2
    attribute: localEulerAnglesBaked.x
    path: 
    classID: 4
    script: {fileID: 0}
  - curve:
      serializedVersion: 2
      m_Curve:
      - time: 0
        value: 0
        inSlope: 0
        outSlope: 0
        tangentMode: 10
      - time: .266666681
        value: 0
        inSlope: 0
        outSlope: 0
        tangentMode: 10
      m_PreInfinity: 2
      m_PostInfinity: 2
    attribute: localEulerAnglesBaked.y
    path: 
    classID: 4
    script: {fileID: 0}
  - curve:
      serializedVersion: 2
      m_Curve:
      - time: 0
        value: -360
        inSlope: 0
        outSlope: 0
        tangentMode: 10
      - time: .266666681
        value: -360
        inSlope: 0
        outSlope: 0
        tangentMode: 10
      m_PreInfinity: 2
      m_PostInfinity: 2
    attribute: localEulerAnglesBaked.z
    path: 
    classID: 4
    script: {fileID: 0}
  m_HasGenericRootTransform: 1
  m_HasMotionFloatCurves: 0
  m_GenerateMotionCurves: 0
  m_Events: []
