%YAML 1.1
%TAG !u! tag:unity3d.com,2011:
--- !u!74 &7400000
AnimationClip:
  m_ObjectHideFlags: 0
  m_PrefabParentObject: {fileID: 0}
  m_PrefabInternal: {fileID: 0}
  m_Name: Player@Run
  serializedVersion: 4
  m_AnimationType: 2
  m_Compressed: 0
  m_UseHighQualityCurve: 1
  m_RotationCurves: []
  m_CompressedRotationCurves: []
  m_PositionCurves: []
  m_ScaleCurves: []
  m_FloatCurves: []
  m_PPtrCurves:
  - curve:
    - time: 0
      value: {fileID: 21300124, guid: c91e30dc51c3b3446b895669b30b67a9, type: 3}
    - time: .0333333351
      value: {fileID: 21300126, guid: c91e30dc51c3b3446b895669b30b67a9, type: 3}
    - time: .0500000007
      value: {fileID: 21300128, guid: c91e30dc51c3b3446b895669b30b67a9, type: 3}
    - time: .100000001
      value: {fileID: 21300130, guid: c91e30dc51c3b3446b895669b30b67a9, type: 3}
    - time: .150000006
      value: {fileID: 21300132, guid: c91e30dc51c3b3446b895669b30b67a9, type: 3}
    - time: .166666672
      value: {fileID: 21300134, guid: c91e30dc51c3b3446b895669b30b67a9, type: 3}
    - time: .183333337
      value: {fileID: 21300136, guid: c91e30dc51c3b3446b895669b30b67a9, type: 3}
    - time: .233333334
      value: {fileID: 21300138, guid: c91e30dc51c3b3446b895669b30b67a9, type: 3}
    - time: .266666681
      value: {fileID: 21300140, guid: c91e30dc51c3b3446b895669b30b67a9, type: 3}
    - time: .283333331
      value: {fileID: 21300142, guid: c91e30dc51c3b3446b895669b30b67a9, type: 3}
    - time: .333333343
      value: {fileID: 21300144, guid: c91e30dc51c3b3446b895669b30b67a9, type: 3}
    - time: .400000006
      value: {fileID: 21300146, guid: c91e30dc51c3b3446b895669b30b67a9, type: 3}
    - time: .483333319
      value: {fileID: 21300148, guid: c91e30dc51c3b3446b895669b30b67a9, type: 3}
    attribute: m_Sprite
    path: 
    classID: 212
    script: {fileID: 0}
  m_SampleRate: 60
  m_WrapMode: 0
  m_Bounds:
    m_Center: {x: 0, y: 0, z: 0}
    m_Extent: {x: 0, y: 0, z: 0}
  m_AnimationClipSettings:
    serializedVersion: 2
    m_StartTime: 0
    m_StopTime: .5
    m_OrientationOffsetY: 0
    m_Level: 0
    m_CycleOffset: 0
    m_LoopTime: 1
    m_LoopBlend: 0
    m_LoopBlendOrientation: 0
    m_LoopBlendPositionY: 0
    m_LoopBlendPositionXZ: 0
    m_KeepOriginalOrientation: 0
    m_KeepOriginalPositionY: 1
    m_KeepOriginalPositionXZ: 0
    m_HeightFromFeet: 0
    m_Mirror: 0
  m_EditorCurves: []
  m_EulerEditorCurves: []
  m_Events: []
