%YAML 1.1
%TAG !u! tag:unity3d.com,2011:
--- !u!74 &7400000
AnimationClip:
  m_ObjectHideFlags: 0
  m_PrefabParentObject: {fileID: 0}
  m_PrefabInternal: {fileID: 0}
  m_Name: Player@Fall
  serializedVersion: 4
  m_AnimationType: 2
  m_Compressed: 0
  m_UseHighQualityCurve: 1
  m_RotationCurves: []
  m_CompressedRotationCurves: []
  m_PositionCurves: []
  m_ScaleCurves: []
  m_FloatCurves: []
  m_PPtrCurves:
  - curve:
    - time: 0
      value: {fileID: 21300000, guid: c91e30dc51c3b3446b895669b30b67a9, type: 3}
    - time: .183333337
      value: {fileID: 21300002, guid: c91e30dc51c3b3446b895669b30b67a9, type: 3}
    - time: .233333334
      value: {fileID: 21300004, guid: c91e30dc51c3b3446b895669b30b67a9, type: 3}
    - time: .266666681
      value: {fileID: 21300006, guid: c91e30dc51c3b3446b895669b30b67a9, type: 3}
    - time: .283333331
      value: {fileID: 21300008, guid: c91e30dc51c3b3446b895669b30b67a9, type: 3}
    - time: .300000012
      value: {fileID: 21300010, guid: c91e30dc51c3b3446b895669b30b67a9, type: 3}
    - time: .316666663
      value: {fileID: 21300012, guid: c91e30dc51c3b3446b895669b30b67a9, type: 3}
    - time: .333333343
      value: {fileID: 21300014, guid: c91e30dc51c3b3446b895669b30b67a9, type: 3}
    - time: .383333325
      value: {fileID: 21300016, guid: c91e30dc51c3b3446b895669b30b67a9, type: 3}
    - time: .533333361
      value: {fileID: 21300018, guid: c91e30dc51c3b3446b895669b30b67a9, type: 3}
    - time: .583333313
      value: {fileID: 21300020, guid: c91e30dc51c3b3446b895669b30b67a9, type: 3}
    - time: .600000024
      value: {fileID: 21300022, guid: c91e30dc51c3b3446b895669b30b67a9, type: 3}
    - time: .616666675
      value: {fileID: 21300024, guid: c91e30dc51c3b3446b895669b30b67a9, type: 3}
    - time: .633333325
      value: {fileID: 21300026, guid: c91e30dc51c3b3446b895669b30b67a9, type: 3}
    - time: .766666651
      value: {fileID: 21300028, guid: c91e30dc51c3b3446b895669b30b67a9, type: 3}
    - time: .816666663
      value: {fileID: 21300030, guid: c91e30dc51c3b3446b895669b30b67a9, type: 3}
    - time: .866666675
      value: {fileID: 21300032, guid: c91e30dc51c3b3446b895669b30b67a9, type: 3}
    - time: .883333325
      value: {fileID: 21300034, guid: c91e30dc51c3b3446b895669b30b67a9, type: 3}
    - time: .899999976
      value: {fileID: 21300036, guid: c91e30dc51c3b3446b895669b30b67a9, type: 3}
    - time: .916666687
      value: {fileID: 21300038, guid: c91e30dc51c3b3446b895669b30b67a9, type: 3}
    - time: .966666639
      value: {fileID: 21300040, guid: c91e30dc51c3b3446b895669b30b67a9, type: 3}
    - time: 1.14999998
      value: {fileID: 21300042, guid: c91e30dc51c3b3446b895669b30b67a9, type: 3}
    attribute: m_Sprite
    path: 
    classID: 212
    script: {fileID: 0}
  m_SampleRate: 60
  m_WrapMode: 0
  m_Bounds:
    m_Center: {x: 0, y: 0, z: 0}
    m_Extent: {x: 0, y: 0, z: 0}
  m_AnimationClipSettings:
    serializedVersion: 2
    m_StartTime: 0
    m_StopTime: 1.16666663
    m_OrientationOffsetY: 0
    m_Level: 0
    m_CycleOffset: 0
    m_LoopTime: 1
    m_LoopBlend: 0
    m_LoopBlendOrientation: 0
    m_LoopBlendPositionY: 0
    m_LoopBlendPositionXZ: 0
    m_KeepOriginalOrientation: 0
    m_KeepOriginalPositionY: 1
    m_KeepOriginalPositionXZ: 0
    m_HeightFromFeet: 0
    m_Mirror: 0
  m_EditorCurves: []
  m_EulerEditorCurves: []
  m_Events: []
