{
"1111":"Floor",
"0101":"Line1",
"1010":"Line0",
"0000":"Non",
"0111":"OneWall_Top",
"1011":"OneWall_Right",
"1101":"OneWall_Bottom",
"1110":"OneWall_Left",
"0110":"Rightangle0",
"1100":"Rightangle1",
"1001":"Rightangle2",
"0011":"Rightangle3",
"1000":"LineEnd2",
"0100":"LineEnd1",
"0010":"LineEnd0",
"0001":"LineEnd3",
}