{
"bgmlist":[
"game_maoudamashii_5_town17",
"",
"game_maoudamashii_4_field03",
"game_maoudamashii_6_dangeon15",
"game_maoudamashii_6_dangeon22",
"game_maoudamashii_6_dangeon17",
"game_maoudamashii_6_dangeon20",
"game_maoudamashii_6_dangeon13",
"game_maoudamashii_4_field10",
"game_maoudamashii_5_casino01"
],
"selist":[
"shakin1",          
"money-drop2",
"jail-door-close1",
"magic-cure4",
"trumpet1",
"",
"decision22",
"cancel1",
"sword-gesture1",
"sword-slash3",
"sword-gesture3",
"katana-slash2",
"katana-clash3",
"eye-shine1",
"",
"",
"",
"",
"",
"",
"",
"",
"kaze",
"",
"",
"",
"",
"",
"",
"",
"",
"",
"",
"",
"",
"",
"",
"",
"",
"",
"",
"",
"",
"",
"",
"",
"",
"",
"",
"",
"",
"",
"",
"",
"",
"",
"",
"",
"",
"",
"",
"",
"",
"",
"",
"",
"",
"",
"",
"",
"",
"",
"",
"",
"",
"",
"",
""
]
}
