{
"50501":{"name":"体力の石","file":"Stone_Fire"},
"50502":{"name":"技の石","file":"Stone_Fire"},
"50503":{"name":"火の石","file":"Stone_Fire"},
"50504":{"name":"水の石","file":"Stone_Water"},
"50505":{"name":"氷の石","file":"Stone_Ice"},
"50506":{"name":"風の石","file":"Stone_Wind"},
"50507":{"name":"闇の石","file":"Stone_Darkness"},
"50508":{"name":"光の石","file":"Stone_Holly"},
"50509":{"name":"地の石","file":"Stone_Earth"},
"50510":{"name":"雷の石","file":"Stone_Thunder"},
"50601":{"name":"火の水晶","file":"Crystal_Fire"},
"50602":{"name":"水の水晶","file":"Crystal_Water"},
"50603":{"name":"氷の水晶","file":"Crystal_Ice"},
"50604":{"name":"風の水晶","file":"Crystal_Wind"},
"50605":{"name":"闇の水晶","file":"Crystal_Darkness"},
"50606":{"name":"光の水晶","file":"Crystal_Holly"},
"50607":{"name":"地の水晶","file":"Crystal_Earth"},
"50608":{"name":"雷の水晶","file":"Crystal_Thunder"}}
