[
"0",
"4",
"7",
"20",
"42",
"72",
"110",
"156",
"210",
"272",
"342",
"420",
"506",
"600",
"702",
"812",
"930",
"1056",
"1190",
"1332",
"1482",
"1640",
"1806",
"1980",
"2162",
"2352",
"2550",
"2756",
"2970",
"3192",
"3422",
"3660",
"3906",
"4160",
"4422",
"4692",
"4970",
"5256",
"5550",
"5852",
"6162",
"6480",
"6806",
"7140",
"7482",
"7832",
"8190",
"8556",
"8930",
"9312",
"9702",
"10100",
"10506",
"10920",
"11342",
"11772",
"12210",
"12656",
"13110",
"13572",
"14042",
"14520",
"15006",
"15500",
"16002",
"16512",
"17030",
"17556",
"18090",
"18632",
"19182",
"19740",
"20306",
"20880",
"21462",
"22052",
"22650",
"23256",
"23870",
"24492",
"25122",
"25760",
"26406",
"27060",
"27722",
"28392",
"29070",
"29756",
"30450",
"31152",
"31862",
"32580",
"33306",
"34040",
"34782",
"35532",
"36290",
"37056",
"37830",
"38612",
"39402",
"40200",
"41006"
]