%YAML 1.1
%TAG !u! tag:unity3d.com,2011:
--- !u!74 &7400000
AnimationClip:
  m_ObjectHideFlags: 0
  m_PrefabParentObject: {fileID: 0}
  m_PrefabInternal: {fileID: 0}
  m_Name: Jump
  serializedVersion: 6
  m_Legacy: 0
  m_Compressed: 0
  m_UseHighQualityCurve: 1
  m_RotationCurves: []
  m_CompressedRotationCurves: []
  m_PositionCurves:
  - curve:
      serializedVersion: 2
      m_Curve:
      - time: 0
        value: {x: 0, y: 0, z: -.00628430536}
        inSlope: {x: 0, y: 0, z: 0}
        outSlope: {x: 0, y: 0, z: 0}
        tangentMode: 0
      - time: .0666666701
        value: {x: 0, y: 0, z: -.00628430536}
        inSlope: {x: 0, y: 0, z: 1.46946692}
        outSlope: {x: 0, y: 0, z: 1.46946692}
        tangentMode: 0
      - time: .333333343
        value: {x: 0, y: 0, z: .777431428}
        inSlope: {x: 0, y: 0, z: .891282737}
        outSlope: {x: 0, y: 0, z: .891282737}
        tangentMode: 0
      - time: .75
        value: {x: 0, y: 0, z: -.00210850313}
        inSlope: {x: 0, y: 0, z: -4.98631048}
        outSlope: {x: 0, y: 0, z: -.394793212}
        tangentMode: 0
      - time: .816666663
        value: {x: 0, y: 0, z: -.00628430536}
        inSlope: {x: 0, y: 0, z: -.0313185193}
        outSlope: {x: 0, y: 0, z: -.0313185193}
        tangentMode: 0
      - time: .883333325
        value: {x: 0, y: 0, z: -.00628430536}
        inSlope: {x: 0, y: 0, z: 0}
        outSlope: {x: 0, y: 0, z: 0}
        tangentMode: 0
      m_PreInfinity: 2
      m_PostInfinity: 2
    path: Body
  m_ScaleCurves:
  - curve:
      serializedVersion: 2
      m_Curve:
      - time: 0
        value: {x: 1, y: 1, z: 1}
        inSlope: {x: 0, y: -2.99999976, z: 0}
        outSlope: {x: 0, y: -2.99999976, z: 0}
        tangentMode: 0
      - time: .0666666701
        value: {x: 1, y: .800000012, z: 1}
        inSlope: {x: 0, y: 0, z: 0}
        outSlope: {x: 0, y: 0, z: 0}
        tangentMode: 0
      - time: .13333334
        value: {x: 1, y: 1, z: 1}
        inSlope: {x: 0, y: 1.49999988, z: 0}
        outSlope: {x: 0, y: 1.49999988, z: 0}
        tangentMode: 0
      - time: .300000012
        value: {x: 1, y: 1, z: 1}
        inSlope: {x: 0, y: 0, z: 0}
        outSlope: {x: 0, y: -0, z: 0}
        tangentMode: 0
      - time: .75
        value: {x: 1, y: 1, z: 1}
        inSlope: {x: 0, y: 0, z: 0}
        outSlope: {x: 0, y: -1.19999933, z: 0}
        tangentMode: 0
      - time: .816666663
        value: {x: 1, y: .800000012, z: 1}
        inSlope: {x: 0, y: 0, z: 0}
        outSlope: {x: 0, y: 0, z: 0}
        tangentMode: 0
      - time: .883333325
        value: {x: 1, y: 1, z: 1}
        inSlope: {x: 0, y: 3, z: 0}
        outSlope: {x: 0, y: 3, z: 0}
        tangentMode: 0
      m_PreInfinity: 2
      m_PostInfinity: 2
    path: Body
  m_FloatCurves: []
  m_PPtrCurves: []
  m_SampleRate: 60
  m_WrapMode: 0
  m_Bounds:
    m_Center: {x: 0, y: 0, z: 0}
    m_Extent: {x: 0, y: 0, z: 0}
  m_ClipBindingConstant:
    genericBindings:
    - path: 2073732236
      attribute: 1
      script: {fileID: 0}
      classID: 4
      customType: 0
      isPPtrCurve: 0
    - path: 2073732236
      attribute: 3
      script: {fileID: 0}
      classID: 4
      customType: 0
      isPPtrCurve: 0
    pptrCurveMapping: []
  m_AnimationClipSettings:
    serializedVersion: 2
    m_StartTime: 0
    m_StopTime: .883333325
    m_OrientationOffsetY: 0
    m_Level: 0
    m_CycleOffset: 0
    m_LoopTime: 0
    m_LoopBlend: 0
    m_LoopBlendOrientation: 0
    m_LoopBlendPositionY: 0
    m_LoopBlendPositionXZ: 0
    m_KeepOriginalOrientation: 0
    m_KeepOriginalPositionY: 1
    m_KeepOriginalPositionXZ: 0
    m_HeightFromFeet: 0
    m_Mirror: 0
  m_EditorCurves:
  - curve:
      serializedVersion: 2
      m_Curve:
      - time: 0
        value: 1
        inSlope: 0
        outSlope: 0
        tangentMode: 10
      - time: .0666666701
        value: 1
        inSlope: 0
        outSlope: 0
        tangentMode: 10
      - time: .13333334
        value: 1
        inSlope: 0
        outSlope: 0
        tangentMode: 10
      - time: .300000012
        value: 1
        inSlope: 0
        outSlope: 0
        tangentMode: 10
      - time: .75
        value: 1
        inSlope: 0
        outSlope: 0
        tangentMode: 10
      - time: .816666663
        value: 1
        inSlope: 0
        outSlope: 0
        tangentMode: 10
      - time: .883333325
        value: 1
        inSlope: 0
        outSlope: 0
        tangentMode: 10
      m_PreInfinity: 2
      m_PostInfinity: 2
    attribute: m_LocalScale.x
    path: Body
    classID: 4
    script: {fileID: 0}
  - curve:
      serializedVersion: 2
      m_Curve:
      - time: 0
        value: 1
        inSlope: -2.99999976
        outSlope: -2.99999976
        tangentMode: 10
      - time: .0666666701
        value: .800000012
        inSlope: 0
        outSlope: 0
        tangentMode: 10
      - time: .13333334
        value: 1
        inSlope: 1.49999988
        outSlope: 1.49999988
        tangentMode: 10
      - time: .300000012
        value: 1
        inSlope: 0
        outSlope: -0
        tangentMode: 17
      - time: .75
        value: 1
        inSlope: 0
        outSlope: -1.19999933
        tangentMode: 5
      - time: .816666663
        value: .800000012
        inSlope: 0
        outSlope: 0
        tangentMode: 10
      - time: .883333325
        value: 1
        inSlope: 3
        outSlope: 3
        tangentMode: 10
      m_PreInfinity: 2
      m_PostInfinity: 2
    attribute: m_LocalScale.y
    path: Body
    classID: 4
    script: {fileID: 0}
  - curve:
      serializedVersion: 2
      m_Curve:
      - time: 0
        value: 1
        inSlope: 0
        outSlope: 0
        tangentMode: 10
      - time: .0666666701
        value: 1
        inSlope: 0
        outSlope: 0
        tangentMode: 10
      - time: .13333334
        value: 1
        inSlope: 0
        outSlope: 0
        tangentMode: 10
      - time: .300000012
        value: 1
        inSlope: 0
        outSlope: 0
        tangentMode: 10
      - time: .75
        value: 1
        inSlope: 0
        outSlope: 0
        tangentMode: 10
      - time: .816666663
        value: 1
        inSlope: 0
        outSlope: 0
        tangentMode: 10
      - time: .883333325
        value: 1
        inSlope: 0
        outSlope: 0
        tangentMode: 10
      m_PreInfinity: 2
      m_PostInfinity: 2
    attribute: m_LocalScale.z
    path: Body
    classID: 4
    script: {fileID: 0}
  - curve:
      serializedVersion: 2
      m_Curve:
      - time: 0
        value: 0
        inSlope: 0
        outSlope: 0
        tangentMode: 10
      - time: .883333325
        value: 0
        inSlope: 0
        outSlope: 0
        tangentMode: 10
      m_PreInfinity: 2
      m_PostInfinity: 2
    attribute: m_LocalPosition.x
    path: Body
    classID: 4
    script: {fileID: 0}
  - curve:
      serializedVersion: 2
      m_Curve:
      - time: 0
        value: 0
        inSlope: 0
        outSlope: 0
        tangentMode: 10
      - time: .883333325
        value: 0
        inSlope: 0
        outSlope: 0
        tangentMode: 10
      m_PreInfinity: 2
      m_PostInfinity: 2
    attribute: m_LocalPosition.y
    path: Body
    classID: 4
    script: {fileID: 0}
  - curve:
      serializedVersion: 2
      m_Curve:
      - time: 0
        value: -.00628430536
        inSlope: 0
        outSlope: 0
        tangentMode: 10
      - time: .0666666701
        value: -.00628430536
        inSlope: 1.46946692
        outSlope: 1.46946692
        tangentMode: 10
      - time: .333333343
        value: .777431428
        inSlope: .891282737
        outSlope: .891282737
        tangentMode: 0
      - time: .75
        value: -.00210850313
        inSlope: -4.98631048
        outSlope: -.394793212
        tangentMode: 1
      - time: .816666663
        value: -.00628430536
        inSlope: -.0313185193
        outSlope: -.0313185193
        tangentMode: 10
      - time: .883333325
        value: -.00628430536
        inSlope: 0
        outSlope: 0
        tangentMode: 10
      m_PreInfinity: 2
      m_PostInfinity: 2
    attribute: m_LocalPosition.z
    path: Body
    classID: 4
    script: {fileID: 0}
  m_EulerEditorCurves: []
  m_HasGenericRootTransform: 0
  m_HasMotionFloatCurves: 0
  m_GenerateMotionCurves: 0
  m_Events: []
